{
  "name": "genesys",
  "title": "Genesys",
  "description": "A system for playing Genesys games.",
  "version": "0.0.1",
  "minimumCoreVersion": "0.8.8",
  "compatibleCoreVersion": "0.8.8",
  "templateVersion": 1,
  "author": "Genraven1",
  "esmodules": [
    "modules/dice-pool-ffg.js",
    "modules/swffg-main.js"
  ],
  "styles": [
    "styles/starwarsffg.css",
    "lib/select2/select2.min.css",
    "lib/pure/grids-min.css"
  ],
  "scripts": [
    "lib/select2/select2.min.js",
    "lib/jszip/jszip.min.js",
    "lib/jxon/jxon.min.js"
  ],
  "socket": true,
  "packs": [],
  "languages": [
    {
      "lang": "en",
      "name": "English",
      "path": "lang/en.json"
    }
  ],
  "gridDistance": 5,
  "gridUnits": "ft",
  "primaryTokenAttribute": "wounds",
  "secondaryTokenAttribute": "strain",
  "url": "https://gitlab.com/genraven1/genesys",
  "manifest": "https://gitlab.com/genraven1/genesys/-/raw/master/system.json",
  "download": "https://gitlab.com/genraven1/genesys/-/archive/master/genesys-master.zip",
  "license": "LICENSE.txt"
}